accountID,naam,wachtwoord,email,openingsrecht
1,"Stijn Vergouwen",koek,secvergouwen@gmail.com,0
2,"Denzel van Russel",winter,denzelvanrussel@gmail.com,1
3,"Yoeri Pham",lente,yoeripham@gmail.com,1
4,"Jonathan Koeiman",jutsu,jonathankoeiman@gmail.com,0
5,"Wassim Jouhri",herfst,wassimjouhri@gmail.com,1
6,"Robin Warmelink",zomer,robinwarmelink@gmail.com,1
