trainingID,datum,openingstijd,openaar
1,2016-06-06,20:10,2
2,2016-06-07,20:00,2
3,2016-06-08,19:45,3
4,2016-06-09,20:20,2
5,2016-06-10,20:00,2
6,2016-06-11,20:00,3
7,2016-06-12,20:30,3
8,2016-06-13,20:00,2
9,2016-06-14,20:46,2
10,2016-06-15,NULL,3
11,2016-06-16,NULL,2
12,2016-06-17,NULL,3
13,2016-06-18,,3
14,2016-06-19,NULL,3
15,2016-06-20,NULL,2
16,2016-06-21,NULL,3
17,2016-06-22,NULL,2
18,2016-06-23,NULL,2
19,2016-06-25,NULL,2
20,2016-06-26,NULL,3
21,2016-06-27,NULL,3
